<?xml version="1.0" standalone="no"?>
<!DOCTYPE svg PUBLIC "-//W3C//DTD SVG 1.1//EN" "http://www.w3.org/Graphics/SVG/1.1/DTD/svg11.dtd" >
<svg xmlns="http://www.w3.org/2000/svg">
<metadata>Generated by IcoMoon</metadata>
<defs>
<font id="rubl" horiz-adv-x="1024">
<font-face units-per-em="1024" ascent="960" descent="-64" />
<missing-glyph horiz-adv-x="1024" />
<glyph unicode="&#x20;" horiz-adv-x="512" d="" />
<glyph unicode="&#x420;" glyph-name="rub" horiz-adv-x="608" d="M35.84 372.224h78.848v354.304h184.32q256 0 256-204.8 0-206.848-243.712-206.848h-135.168v-80.896h204.8v-57.344h-204.8v-189.44h-61.44v189.44h-78.848v57.344h78.848v80.896h-78.848v57.344zM176.128 372.224h151.552q78.848 0 121.344 39.424t42.496 110.080q0 147.456-183.296 147.456h-132.096v-296.96z" />
</font></defs></svg>